<?xml version="1.0" encoding="utf-8"?>
<!-- Generator: Adobe Illustrator 19.0.0, SVG Export Plug-In . SVG Version: 6.00 Build 0)  -->
<svg version="1.1" xmlns="http://www.w3.org/2000/svg" xmlns:xlink="http://www.w3.org/1999/xlink" x="0px" y="0px"
	 viewBox="0 0 750 500" style="enable-background:new 0 0 750 500;" xml:space="preserve">
<style type="text/css">
	.st0{fill:#C6F1FE;}
	.st1{fill:none;stroke:#0B334C;stroke-width:0.7069;stroke-linecap:round;stroke-linejoin:round;stroke-miterlimit:10;}
	
		.st2{fill:none;stroke:#8EE4FD;stroke-width:2.8278;stroke-linecap:round;stroke-linejoin:round;stroke-miterlimit:10;stroke-dasharray:9.8972;}
	.st3{fill:#64E4E6;}
	.st4{fill:none;stroke:#64E4E6;stroke-width:1.4139;stroke-miterlimit:10;}
	.st5{fill:#1F5B99;}
	.st6{fill:#F64652;}
	.st7{fill:#FFFFFF;}
	.st8{fill:#FCB13A;}
	.st9{fill:#2CD0D1;}
	.st10{fill:#072130;}
	.st11{fill:#76D3F0;}
	.st12{fill:#00A2DD;}
	.st13{fill:#FA9778;}
	.st14{fill:#0B334C;}
	.st15{fill:#FA845F;}
	.st16{fill:#1FB4EB;}
	.st17{fill:#256CB5;}
	.st18{fill:none;stroke:#0B334C;stroke-width:1.0604;stroke-linecap:round;stroke-linejoin:round;stroke-miterlimit:10;}
	.st19{fill:#256DB8;}
</style>
<g id="OBJECTS">
	<g>
		<g>
			
				<rect x="353.5" y="33.6" transform="matrix(-0.2665 0.9638 -0.9638 -0.2665 628.1531 -158.4033)" class="st0" width="41.8" height="252.4"/>
			<circle class="st1" cx="261.4" cy="128.3" r="2.9"/>
		</g>
		<g>
			
				<rect x="353.5" y="33.6" transform="matrix(0.5 0.866 -0.866 0.5 325.5767 -244.2898)" class="st0" width="41.8" height="252.4"/>
			<circle class="st1" cx="272.2" cy="217" r="2.9"/>
			<circle class="st1" cx="473.2" cy="102" r="2.9"/>
		</g>
	</g>
	<g>
		<path class="st2" d="M625.7,444.4c10.9-20,12.6-43.6,14.1-66.4c0.8-11.6,1.5-23.4-1-34.7c-2-8.8-5.8-17.1-9.9-25.2
			c-20.1-39.9-46.5-78.2-53.1-122.4c-5.4-36.5,2.1-77.6-19.7-107.4c-8-10.9-19.3-19-31.6-24.6c-16.5-7.5-35-10.7-53.1-9.1
			c-34.3,3-65,22.4-98.8,28.8c-25.3,4.8-51.4,2.1-77.2,2.5c-25.8,0.4-52.9,4.4-73.2,20.2c-16.4,12.8-26.8,32.8-27.9,53.5
			c-0.8,14.3,2.7,28.6,2.8,43c0.3,42.7-28.3,79.8-39.4,121c-11.8,43.8-2.6,92.7,24.4,129.2"/>
		<g>
			<circle class="st3" cx="625" cy="222.6" r="9.4"/>
			<circle class="st3" cx="121.7" cy="197.1" r="9.4"/>
			<circle class="st3" cx="642" cy="159.4" r="8"/>
			<circle class="st4" cx="633" cy="211.8" r="12.7"/>
			<circle class="st4" cx="119.3" cy="218.4" r="19.3"/>
			<circle class="st4" cx="275.8" cy="59.1" r="11.8"/>
		</g>
	</g>
	<g>
		<g>
			<path class="st3" d="M170,143.4h-49.5v-33.4c0-1.4,1.1-2.5,2.5-2.5h44.6c1.4,0,2.5,1.1,2.5,2.5V143.4z"/>
			<path class="st5" d="M170,114.7h-49.5v-4.6c0-1.4,1.1-2.5,2.5-2.5h44.6c1.4,0,2.5,1.1,2.5,2.5V114.7z"/>
		</g>
		<g>
			<path class="st5" d="M612.9,138.7v-5.3h-3.2c-0.1-0.4-0.3-0.9-0.5-1.3l2.3-2.3l-3.7-3.7l-2.3,2.3c-0.4-0.2-0.8-0.4-1.3-0.5v-3.2
				h-5.3v3.2c-0.4,0.1-0.9,0.3-1.3,0.5l-2.3-2.3l-3.7,3.7l2.3,2.3c-0.2,0.4-0.4,0.8-0.5,1.3H590v5.3h3.2c0.1,0.4,0.3,0.9,0.5,1.3
				l-2.3,2.3l3.7,3.7l2.3-2.3c0.4,0.2,0.8,0.4,1.3,0.5v3.2h5.3v-3.2c0.4-0.1,0.9-0.3,1.3-0.5l2.3,2.3l3.7-3.7l-2.3-2.3
				c0.2-0.4,0.4-0.8,0.5-1.3H612.9z M601.5,140c-2.2,0-4-1.8-4-4c0-2.2,1.8-4,4-4c2.2,0,4,1.8,4,4C605.4,138.2,603.6,140,601.5,140z
				"/>
			<path class="st5" d="M228.4,172.2v-3.4h-2.1c-0.1-0.3-0.2-0.6-0.3-0.8l1.5-1.5l-2.4-2.4l-1.5,1.5c-0.3-0.1-0.5-0.3-0.8-0.3v-2.1
				h-3.4v2.1c-0.3,0.1-0.6,0.2-0.8,0.3l-1.5-1.5l-2.4,2.4l1.5,1.5c-0.1,0.3-0.3,0.5-0.3,0.8h-2.1v3.4h2.1c0.1,0.3,0.2,0.6,0.3,0.8
				l-1.5,1.5l2.4,2.4l1.5-1.5c0.3,0.1,0.5,0.3,0.8,0.3v2.1h3.4v-2.1c0.3-0.1,0.6-0.2,0.8-0.3l1.5,1.5l2.4-2.4L226,173
				c0.1-0.3,0.3-0.5,0.3-0.8H228.4z M221.1,173c-1.4,0-2.5-1.1-2.5-2.5c0-1.4,1.1-2.5,2.5-2.5c1.4,0,2.5,1.1,2.5,2.5
				C223.7,171.9,222.5,173,221.1,173z"/>
			<path class="st5" d="M254,187.2V182h-3.2c-0.1-0.4-0.3-0.9-0.5-1.3l2.3-2.3l-3.7-3.7l-2.3,2.3c-0.4-0.2-0.8-0.4-1.3-0.5v-3.2
				h-5.3v3.2c-0.4,0.1-0.9,0.3-1.3,0.5l-2.3-2.3l-3.7,3.7l2.3,2.3c-0.2,0.4-0.4,0.8-0.5,1.3h-3.2v5.3h3.2c0.1,0.4,0.3,0.9,0.5,1.3
				l-2.3,2.3l3.7,3.7l2.3-2.3c0.4,0.2,0.8,0.4,1.3,0.5v3.2h5.3v-3.2c0.4-0.1,0.9-0.3,1.3-0.5l2.3,2.3l3.7-3.7l-2.3-2.3
				c0.2-0.4,0.4-0.8,0.5-1.3H254z M242.5,188.6c-2.2,0-4-1.8-4-4c0-2.2,1.8-4,4-4c2.2,0,4,1.8,4,4
				C246.5,186.8,244.7,188.6,242.5,188.6z"/>
		</g>
		<g>
			<path class="st6" d="M525.5,149.1c0-13.5-14.2-24.5-31.8-24.5c-17.6,0-31.8,11-31.8,24.5c0,11.7,10.7,21.5,24.9,23.9l6.9,8.8
				l6.9-8.8C514.8,170.6,525.5,160.8,525.5,149.1z"/>
			<g>
				<path class="st7" d="M486.5,155.4h-1.8v2.3h-4.4v-2.3h-7.1v-2.9l5.8-8.4h4.7l-5.1,7.7h1.8v-2.1h4.3v2.1h1.8V155.4z"/>
				<path class="st7" d="M487.2,150.9c0-4.5,2.6-7.1,6.2-7.1c3.6,0,6.2,2.6,6.2,7.1c0,4.5-2.6,7.1-6.2,7.1
					C489.7,158,487.2,155.4,487.2,150.9z M494.9,150.9c0-2.6-0.7-3.4-1.6-3.4c-0.9,0-1.6,0.8-1.6,3.4c0,2.6,0.7,3.4,1.6,3.4
					C494.2,154.4,494.9,153.5,494.9,150.9z"/>
				<path class="st7" d="M513.8,155.4H512v2.3h-4.4v-2.3h-7.1v-2.9l5.8-8.4h4.7l-5.1,7.7h1.8v-2.1h4.3v2.1h1.8V155.4z"/>
			</g>
		</g>
		<g>
			<circle class="st8" cx="304.7" cy="107.6" r="16.4"/>
			<g>
				<path class="st7" d="M301.8,100.2h5.6l-0.9,9h-3.8L301.8,100.2z M301.9,112.5c0-1.4,1.1-2.5,2.8-2.5c1.6,0,2.8,1.1,2.8,2.5
					c0,1.4-1.1,2.5-2.8,2.5C303,115,301.9,113.9,301.9,112.5z"/>
			</g>
		</g>
	</g>
	<g>
		<g>
			<g>
				<path class="st3" d="M171.8,388.9c0,0-13.9-33.6-7.3-62.8c1.5-6.4,10.1-7.5,13.2-1.7c6.4,12.3,13.2,33.4,5.8,61.1L171.8,388.9z"
					/>
				<line class="st1" x1="171" y1="327.6" x2="176.3" y2="375"/>
			</g>
			<g>
				<path class="st9" d="M174.4,378.7c-4.6-10.7-11.2-20.4-15.3-31.3c-4.2-11.3-6.8-25.2-17.8-30.3c-1.7-0.8-3.5-1.3-5.3-1
					c-2.9,0.5-5.1,3.1-6.5,5.7c-4.3,8-4.1,18.2,0.3,26.2c2.4,4.3,6.1,8.1,7.3,12.8c3,11.7-9.2,24.5-3.5,35.2c2.7,5,8.6,7.4,14.1,8.7
					c5.6,1.2,11.5,1.7,16.5,4.4c8.2,4.5,12.5,7,14.4-4.2C180,396,177.9,386.9,174.4,378.7z"/>
				<path class="st1" d="M136,327.6c8.5,7.3,11.8,19,12,30.2c0.1,6.3-0.6,12.6,0.9,18.7c2.8,11.5,12.8,19.7,22.2,27"/>
			</g>
			<g>
				<path class="st9" d="M173.5,389.5c1.9-8.2,6.8-15.3,11.7-22.1c4.9-6.8,10-13.8,12.1-21.9c2.3-8.8,1-18.3-1.2-27.1
					c-0.4-1.7-0.8-3.5-0.2-5.1c1-2.7,4.3-3.7,7.1-3.6c10.9,0.3,18.9,11.8,19.2,22.7c0.3,10.9-5.2,21.1-11.1,30.3
					c-5.9,9.2-12.6,18.2-15.3,28.8c-1.6,6.3-3.8,25-14.8,22C173.2,411.3,172.1,395.7,173.5,389.5z"/>
				<path class="st1" d="M205.2,318.3c3.4,8,2,17.2-1.2,25.3c-3.2,8.1-8,15.4-11.7,23.2c-5.1,10.9-8.1,22.9-8.5,35"/>
			</g>
		</g>
		<polygon class="st8" points="188.6,452.7 160.3,452.7 154.2,406.7 194.7,406.7 		"/>
	</g>
	<g>
		<g>
			<g>
				<polygon class="st10" points="606.4,450.8 545.1,269.9 530.1,269.9 591.3,450.8 				"/>
				<polygon class="st10" points="476.2,450.8 507.6,269.9 492.6,269.9 461.1,450.8 				"/>
			</g>
		</g>
		<g>
			<g>
				<g>
					<g>
						<g>
							<g>
								
									<rect x="352.1" y="364.9" transform="matrix(0.7507 0.6607 -0.6607 0.7507 340.0775 -170.0162)" class="st11" width="86.4" height="1.4"/>
							</g>
							<g>
								
									<rect x="380.1" y="326.7" transform="matrix(0.514 0.8578 -0.8578 0.514 496.0164 -150.4831)" class="st11" width="1.4" height="71.5"/>
							</g>
						</g>
						<g>
							<g>
								<polygon class="st11" points="419.4,342.3 408.1,342.3 439.3,440.9 450.6,440.9 								"/>
							</g>
							<g>
								<polygon class="st11" points="363.9,314.6 323.9,440.9 335.2,440.9 375.2,314.6 								"/>
							</g>
						</g>
					</g>
					<g>
						<g>
							<g>
								<polygon class="st0" points="300.5,452.7 341.8,322.2 330.5,322.2 289.1,452.7 								"/>
							</g>
							<g>
								<polygon class="st0" points="414.7,452.7 373.4,322.2 362,322.2 403.4,452.7 								"/>
							</g>
						</g>
						<g>
							<g>
								
									<rect x="318.2" y="363.2" transform="matrix(0.7385 0.6742 -0.6742 0.7385 338.9435 -146.2286)" class="st0" width="79.7" height="1.4"/>
							</g>
							<g>
								
									<rect x="344.6" y="328.6" transform="matrix(0.5191 0.8547 -0.8547 0.5191 476.3008 -120.5492)" class="st0" width="1.4" height="68.8"/>
							</g>
						</g>
					</g>
				</g>
				<path class="st12" d="M443.9,327.6c0,0-47.6-1.8-54.9-19.5c-7.3-17.7-11-64.1-34.2-65.9c-23.2-1.8-38.5-3.1-38.5,12.8
					s-10.4,67.8,21.4,75.7c29.8,7.4,69.8,21.9,99.9,6.5C441.1,335.3,443.5,331.6,443.9,327.6L443.9,327.6z"/>
			</g>
			<g>
				<g>
					<g>
						<g>
							<path class="st13" d="M438.3,417.1c-0.9,6.4-1.4,11.3-1.7,13.9c-0.1,1.4-0.2,2.1-0.2,2.1l8.7,3.5l1-2.4l4.6-11.2
								C446.5,421.1,442.4,419.1,438.3,417.1z"/>
							<path class="st8" d="M446.1,434.3c0,0-6.7,1.8-9.5-3.2l-1.7,2.1c-1.5,1.8-2.6,3.9-3.3,6.1l-0.2,0.7l28.5,9.7l0,0
								c0.7-2.1,0-4.3-1.7-5.7L446.1,434.3z"/>
						</g>
						<g>
							<path class="st5" d="M402.8,267.3l74,18.1c5.6,1.4,10.8,4.2,14.7,8.5c4.5,4.9,8.1,12.4,4.6,22.5
								c-6.9,20.2-45.4,111.5-45.4,111.5l-14.6-5.7c0,0,10.3-80.8,23.6-98.6c0,0-55.4,2.8-70.9-5.8
								C373.4,309.1,402.8,267.3,402.8,267.3z"/>
							<g>
								<polyline class="st1" points="460.5,321.2 459.8,323.6 464.4,320.2 								"/>
								<line class="st1" x1="438" y1="416.5" x2="452.4" y2="421.7"/>
							</g>
						</g>
					</g>
					<g>
						<g>
							<path class="st13" d="M508,416.9c-4.2,2.7-8.4,5.3-12.8,7.7c6,6.3,10.7,11,12.9,13.2c0.9,0.9,1.4,1.4,1.4,1.4l8.1-4.8
								l-1.4-2.5L508,416.9z"/>
							<path class="st8" d="M516,431.9c0,0-2.5,6.4-8.3,5.8l0.7,2.6c0.6,2.3,1.6,4.4,2.9,6.3l0.4,0.6l24.7-17.2l0,0
								c-1.2-1.8-3.5-2.6-5.6-2L516,431.9z"/>
						</g>
						<g>
							<path class="st5" d="M350.5,256.6c0,0-14.3,16.8-12.7,29.2c1.6,12.4,4.9,24.2,29,34.8c24,10.6,70.3,30.6,70.3,30.6
								s38.9,62.2,64.7,80.9l11-8.1c0,0-44.5-84.8-50.4-91.9c-5.8-7.1-50.5-40.6-50.5-40.6l-8.5-34.5L350.5,256.6z"/>
							<g>
								<path class="st1" d="M400.9,285.7c0,0,46.2,30.9,51.6,37.9"/>
								<polyline class="st1" points="437.4,348 437.2,351.2 439.2,348.6 								"/>
								<path class="st1" d="M350.6,281.7c0,0-1.8,11.8,2.3,15.4c4.1,3.5,89.1,42.2,91,44.7s57.8,85.7,57.8,85.7"/>
								<line class="st1" x1="510.2" y1="421" x2="499.2" y2="429.1"/>
								<path class="st1" d="M446,365.1c0,0,13.4,22.1,19.4,27.6"/>
								<line class="st1" x1="465.4" y1="336.8" x2="478.8" y2="360.3"/>
							</g>
						</g>
					</g>
				</g>
				<g>
					<g>
						<g>
							<path class="st8" d="M383.9,186.8c0,0,14,10,16,13.3c1.9,3.4,10,32.1,10,32.1l21.9-41.2l11.3,4.2c0,0-20.7,56.2-23.3,59.7
								c-2.7,3.5-16.6,7.6-25.4-1.8C385.5,243.9,383.9,186.8,383.9,186.8z"/>
							<polyline class="st1" points="404.9,240.2 410,232.4 409.3,237.3 							"/>
						</g>
						<g>
							<path class="st13" d="M433.6,187.7l-0.1,0.2c-0.1,0.2-0.2,0.3-0.2,0.5c2.7,1.4,5.3,3.3,7.7,4.6c0.7,0.4,1.3,0.7,2,1.1
								c0.2-0.7,0.4-1.4,0.6-2.2c0,0,0,0,0,0c2.4-2.5,7.4-8.1,6.8-8.8c-0.8-0.9-5.3,2.3-5.3,2.3s6.7-6.7,5.3-7.7
								c-1.3-1-6.5,4.8-6.5,4.8s4.5-8.7,2.9-8.9c-1.6-0.2-5.2,6.5-5.2,6.5s2.8-8.8,1.4-8.9c-1.4-0.1-5.5,10.5-5.5,10.5
								s-2.6-4.4-4-3.7c-1.1,0.5-0.2,6.8,0.2,9.6C433.6,187.6,433.6,187.6,433.6,187.7z"/>
							<path class="st7" d="M443.7,193.3c0.3,0.1,0.5,0.5,0.4,0.8c-0.2,1.3-0.8,4.5-1.6,5.4c-0.9,1-7-2.4-8.5-3.3
								c-0.2-0.1-0.4-0.4-0.4-0.6l-0.2-2.4c0,0-1.5,2.2-1.9,2.2c-0.2,0-1-0.4-1.5-0.6c-0.4-0.2-0.5-0.7-0.3-1.1l2.6-4.9
								c0.2-0.4,0.6-0.5,1-0.3L443.7,193.3z"/>
						</g>
					</g>
					<g>
						<path class="st13" d="M374.5,190.1c1.7-0.7,4.5-3,6.9-5.6c-0.7-0.8-1.2-1.9-1.2-3.1v-21.8H363v21.8c0,1.8-1,3.3-2.5,4.1
							C364.1,188.9,369.7,192.1,374.5,190.1z"/>
						<path class="st14" d="M380.1,173.3v3.6c-0.8,0.1-1.7,0-2.5-0.1c-3.7-0.7-9-2.4-12.2-6.4c-0.8-1-1.6-2.3-2.4-4v-0.6
							c0.3,0.5,0.6,0.9,0.9,1.2c3.3,4,8.5,5.7,12.2,6.4C377.5,173.7,378.8,173.6,380.1,173.3z"/>
					</g>
					<g>
						<g>
							<polygon class="st7" points="349.6,256 344.9,263.5 384.9,263.5 388.4,257.6 391.1,264 407.1,264 402.7,256.1 							"/>
							<path class="st8" d="M361.5,184.1c0,0,11.3,9,19.8,0c0,0,16.8,12.7,19.6,16.3c2.8,3.5,2.7,11.8,0.9,16.8
								c-1.8,4.9-9.4,18.9-5.1,27.4c4.2,8.5,6.7,12.4,6.7,12.4h-54.6c0,0,8.5-12.2,5.6-23c0,0-11.3,28.8-24.9,27.4
								c-13.6-1.4-32.7-64.3-32.7-64.3l11.1-5.5l21,39.4c0,0,13.1-42.1,19.8-44C355.4,185,361.5,184.1,361.5,184.1z"/>
							<path class="st7" d="M361.5,184.1c0,0-7.2,6-2.9,10.6c4.2,4.6,13.4-5.6,13.4-5.6s7.2,9,11.5,5.7c4.2-3.4-2.2-10.7-2.2-10.7
								S374,190.2,361.5,184.1z"/>
							<g>
								<path class="st1" d="M358.2,231.7c0,0,0.7,16.8-4.9,23.7"/>
								<path class="st1" d="M402.6,255.9c0,0-9.5-13.4-6.9-21.6c2.7-8.1,7.4-18.9,7.4-23.9"/>
								<g>
									<path class="st14" d="M354,233.8c0,0,5.1-8.5,7.2-18.2c0,0,1.9,14.7-6.4,24.2C354.9,239.8,355.4,237.5,354,233.8z"/>
									<polyline class="st1" points="334.9,241.2 329.2,231.3 332.2,231.3 									"/>
									<path class="st1" d="M348.5,187.7c0,0,8.5,1.1,10.5,11.9"/>
								</g>
							</g>
						</g>
						<g>
							<path class="st13" d="M289,183c-0.6,0.7,4.4,6.3,6.8,8.8c0,0,0,0,0,0c0.3,1.1,0.6,2.2,0.9,3.3c3.7-0.7,7.4-2,11-3.5
								c-0.6-1.3-1.2-2.6-1.8-3.9l-0.1-0.2c0,0,0-0.1-0.1-0.1c0.4-2.8,1.3-9,0.2-9.6c-1.4-0.7-4,3.7-4,3.7s-4.1-10.6-5.5-10.5
								c-1.4,0.1,1.4,8.9,1.4,8.9s-3.7-6.7-5.2-6.5c-1.6,0.2,2.9,8.9,2.9,8.9s-5.2-5.8-6.5-4.8c-1.3,1,5.3,7.7,5.3,7.7
								S289.8,182.1,289,183z"/>
							<path class="st7" d="M296.2,194c-0.3,0.1-0.5,0.5-0.4,0.8c0.2,1.3,0.8,4.5,1.6,5.4c0.9,1,7-2.4,8.5-3.3
								c0.2-0.1,0.4-0.4,0.4-0.6l0.2-2.4c0,0,1.5,2.2,1.9,2.2c0.2,0,1-0.4,1.5-0.6c0.4-0.2,0.5-0.7,0.3-1.1l-2.6-4.9
								c-0.2-0.4-0.6-0.5-1-0.3L296.2,194z"/>
						</g>
					</g>
				</g>
				<g>
					<g>
						<path class="st13" d="M389.3,141.8c-2.1-9.3-11.4-15-20.6-12.6c-8.5,2.2-13.7,10.6-12.2,19c-0.1,0-0.2,0.1-0.4,0.1
							c-2.4,1-3.5,3.7-2.6,6.1c0.9,2.1,4,4.6,6.3,4.4c1.3,3.4,2.7,6.3,4.1,8c3.3,4,8.5,5.7,12.2,6.4c2.8,0.5,5.6-0.2,7.8-2.1
							c2-1.7,4.4-4.1,5.9-7.2c0.7-1.4,1.2-2.8,1.5-4.4c0.1-0.8,0.2-1.8,0.2-2.9C391.4,152.8,390.4,147.2,389.3,141.8z"/>
						<g>
							<g>
								<circle class="st15" cx="369.9" cy="160.2" r="4"/>
								<path class="st15" d="M391.5,156.8c0,1.1,0,2.1-0.2,2.9c-0.3,1.6-0.8,3.1-1.5,4.4c-0.1,0-0.2,0-0.4,0c-2.2,0-4-1.8-4-4
									c0-2.2,1.8-4,4-4C390.2,156.2,390.9,156.4,391.5,156.8z"/>
							</g>
							<path class="st14" d="M379.1,151.2c0.5,1.5,1,2.7,1.4,4.2c0.1,0.7,0.3,1.5,0,2.5c-0.4,1-1.2,1.3-2,1.5
								c0.5-0.7,0.9-1.3,0.9-1.8c0-0.5-0.2-1.2-0.3-1.9c-0.1-0.7-0.3-1.4-0.3-2.2C378.7,152.7,378.7,151.9,379.1,151.2z"/>
							<g>
								<g>
									<path class="st14" d="M374.9,144.7c-0.4,0-0.9-0.1-1.3-0.1c-0.4,0-0.8,0-1.2,0.1c-0.4,0.1-0.8,0.2-1.1,0.4
										c-0.4,0.2-0.7,0.5-1,0.8l0,0c-0.1,0.1-0.3,0.1-0.4,0c-0.1-0.1-0.1-0.2-0.1-0.3c0.2-0.5,0.5-1,0.9-1.3
										c0.4-0.4,0.9-0.7,1.4-0.8c0.5-0.2,1.1-0.2,1.6-0.2c0.5,0.1,1,0.2,1.6,0.4c0.3,0.1,0.4,0.5,0.2,0.8
										C375.4,144.6,375.2,144.7,374.9,144.7L374.9,144.7z"/>
								</g>
								<g>
									<path class="st14" d="M383.2,143.7c0.5-0.3,1-0.4,1.6-0.4c0.5,0,1.1,0,1.6,0.2c0.5,0.2,1,0.4,1.4,0.8
										c0.4,0.4,0.7,0.9,0.9,1.3c0.1,0.2,0,0.3-0.2,0.4c-0.1,0-0.2,0-0.3-0.1l0,0c-0.3-0.3-0.6-0.6-1-0.8
										c-0.4-0.2-0.7-0.3-1.1-0.4c-0.4-0.1-0.8-0.1-1.2-0.1c-0.4,0-0.9,0-1.3,0.1l-0.1,0c-0.3,0-0.6-0.2-0.6-0.5
										C382.9,144,383,143.8,383.2,143.7z"/>
								</g>
							</g>
							<g>
								<ellipse class="st14" cx="385.3" cy="153.4" rx="1.5" ry="2.4"/>
								<ellipse class="st14" cx="373.2" cy="153.4" rx="1.5" ry="2.4"/>
							</g>
							<g>
								<g>
									<path class="st14" d="M376.5,163.3c-0.4,0.1-0.8-0.1-1.2-0.2c-0.4-0.2-0.8-0.4-0.9-0.8c0.4,0.2,0.7,0.3,1.1,0.5
										C375.8,162.9,376.1,163,376.5,163.3z"/>
								</g>
								<ellipse class="st14" cx="376" cy="160.7" rx="1.1" ry="1.7"/>
							</g>
						</g>
					</g>
					<g>
						<path class="st14" d="M390.6,148.6c0,0-0.4-12-7.1-17.7c-6.7-5.7-16.4-2.8-23,1.9c-6.5,4.8-4.5,15.5-4.5,15.5s5.1,7.6,8.3,7.3
							c3.2-0.4,4.1-14,4.1-14s14.1,6.7,19.1,2.1L390.6,148.6z"/>
						<path class="st14" d="M344.9,128.2c-5.6,1.5-10,6.6-10.6,12.3c-0.5,4.7,1.3,9.5,0.1,14c-0.7,2.7-2.4,5-3.8,7.4
							c-2.2,3.8-3.7,8.2-3.4,12.6c0.3,4.4,2.7,8.8,6.7,10.7c1.6,0.8,3.4,1.1,5.3,1.3c4.6,0.3,9.3-0.9,13-3.6c1-0.7,2-1.6,2.6-2.7
							c0.6-1,0.8-2.2,0.9-3.4c0.3-3.2,0-6.4-0.9-9.5c-0.7-2.2-1.6-4.3-2.3-6.5c-1.2-3.6-1.7-7.5-1-11.3c0.7-3.7,2.8-7.3,6.1-9.3
							c0.6-0.3,1.1-0.6,1.6-1.1c2.5-3,0.4-6.9-2.2-8.8C353.4,128.1,348.9,127.1,344.9,128.2z"/>
					</g>
				</g>
			</g>
			<path class="st16" d="M316.9,249.7c0,0,7.4,50.9,17.7,53.4c10.3,2.5,30.8-0.4,38.9,5.7c8.1,6,34.6,35.3,34.6,35.3
				s-62.2-1.3-86.6-20.8C297.1,303.8,316.9,249.7,316.9,249.7z"/>
		</g>
		<g>
			<g>
				<g>
					<g>
						<g>
							<path class="st5" d="M534.8,253.9h-94.4c-0.6,0-1.1-0.5-1.1-1.1v-61.2c0-0.6,0.5-1.1,1.1-1.1h94.4c0.6,0,1.1,0.5,1.1,1.1
								v61.2C535.8,253.5,535.4,253.9,534.8,253.9z"/>
							<path class="st17" d="M442.2,190.7h-1.8c-0.6,0-1.1,0.5-1.1,1.1v61.2c0,0.6,0.5,1.1,1.1,1.1h1.8V190.7z"/>
						</g>
						<g>
							<rect x="465.5" y="262.6" class="st17" width="34.2" height="3"/>
							<g>
								<polygon class="st5" points="515.8,265.6 487.5,265.6 475.9,228.5 500.6,228.5 								"/>
								<polygon class="st5" points="517.8,265.6 489.5,265.6 477.9,228.5 502.6,228.5 								"/>
							</g>
						</g>
					</g>
				</g>
				<g>
					<line class="st18" x1="442.2" y1="191.7" x2="442.2" y2="253.2"/>
					<polyline class="st18" points="503,228.3 475.6,228.3 483.9,253.4 					"/>
				</g>
			</g>
			<g>
				<g>
					<polygon class="st14" points="222.6,450.8 283.8,269.9 268.7,269.9 207.5,450.8 					"/>
					<polygon class="st14" points="379.5,450.8 318.2,269.9 303.1,269.9 364.4,450.8 					"/>
				</g>
				<g>
					<g>
						<rect x="254.6" y="265.6" class="st14" width="305.4" height="15.1"/>
						<rect x="254.6" y="265.6" class="st19" width="67.9" height="15.1"/>
					</g>
				</g>
			</g>
		</g>
	</g>
</g>
<g id="DESIGNED_BY_FREEPIK">
</g>
</svg>
